{
  "status": 200,
  "message": "success",
  "type": "Data Partner",
  "items": [
    {
      "partnerType": "Talent",
      "imgBanner": "/banner-talent.jpg",
      "id": 1,
      "name": "Branch Barron",
      "profilePicture": "https://images.unsplash.com/photo-1484515991647-c5760fcecfc7?ixid=MnwxMjA3fDB8MHxwaG90by1wYWdlfHx8fGVufDB8fHx8&ixlib=rb-1.2.1&auto=format&fit=crop&w=687&q=80",
      "rating": 3.9,
      "location": "Bradenville",
      "job": "Penari",
      "speciality": "Kontemporer / Modern",
      "ordered": 25,
      "price": 850000,
      "description": "Saya belum pernah terjun ke dunia entertainment, namun saya selalu memenangkan lomba dance dan menyanyi sejak TK. Beberapa diantaranya: 1. Juara 1, Olimpiade Al Azhar 2. Juara Harapan 1, Olimpiade Nasional Al Azhar 3. Juara 1 Modern Dance Competition Tingkat Jakarta, SMAN 44 4. Jura 1 Modern Dance Competition Tingkat Jakarta, SMAN 31.",
      "riderList": [
        {
          "title": "Hotel Bintang 5",
          "content": "2 kamar connecting door"
        },
        {
          "title": "Transport Crew",
          "content": "Mobil untuk 10 orang"
        },
        {
          "title": "Konsumsi",
          "content": "Makanan tidak boleh mengandung daging (vegetarian)"
        }
      ]
    },
    {
      "partnerType": "Venue",
      "imgBanner": "/banner-venue.jpg",
      "id": 2,
      "name": "Estes Stadium",
      "profilePicture": "https://images.unsplash.com/photo-1509091677-e1ec534ea2bd?ixid=MnwxMjA3fDB8MHxwaG90by1wYWdlfHx8fGVufDB8fHx8&ixlib=rb-1.2.1&auto=format&fit=crop&w=1000&q=80",
      "rating": 4.3,
      "location": "Lowell",
      "type": "Stadium",
      "speciality": "Pusat Olahraga",
      "ordered": 5,
      "description": "PusatKomunitas A menyediakan berbagai macam ruangan dengan fasilitas yang lengkap dan terjamin. Selama PPKM kami selalu melakasnakan seluruh kegiatan dengan protokol kesehatan yang baik.",
      "address": "Jalan Kuda Hitam 8, no 9, Surabaya Jawa Timur"
    },
    {
      "partnerType": "Vendor",
      "imgBanner": "/banner-vendor.jpg",
      "id": 3,
      "name": "Kinney Bag",
      "profilePicture": "https://images.unsplash.com/photo-1591561954555-607968c989ab?ixid=MnwxMjA3fDB8MHxwaG90by1wYWdlfHx8fGVufDB8fHx8&ixlib=rb-1.2.1&auto=format&fit=crop&w=1028&q=80",
      "rating": 4.7,
      "location": "Movico",
      "type": "Konveksi",
      "speciality": "Tas",
      "ordered": 45,
      "description": "Dolor est mollit sint velit eu tempor et occaecat eu non enim. Deserunt eiusmod qui ad nostrud qui quis ea elit. Ea elit magna in mollit culpa aliqua in fugiat. Occaecat magna cupidatat adipisicing qui id pariatur sint nulla esse ex ipsum ad reprehenderit proident. Pariatur minim velit deserunt pariatur. Nulla ut anim dolor et nulla.\r\n",
      "address": "Jalan Sapi Laut III, no 209, Kab. Bogor Jawa Barat"
    },
    {
      "partnerType": "Influencer",
      "imgBanner": "/banner-influencer.jpg",
      "id": 4,
      "name": "Hannah Nieves",
      "profilePicture": "https://images.unsplash.com/photo-1589673644418-f8cb57a01d3f?ixid=MnwxMjA3fDB8MHxwaG90by1wYWdlfHx8fGVufDB8fHx8&ixlib=rb-1.2.1&auto=format&fit=crop&w=1050&q=80 ",
      "rating": 4.4,
      "location": "Cherokee",
      "speciality": "Kecantikan",
      "ordered": 85,
      "priceMax": 2500000,
      "priceMin": 1275000,
      "description": "Consectetur aute aute cillum laborum qui ut. Sunt nostrud laboris dolore tempor elit anim. Commodo fugiat occaecat id eu dolor velit ut cupidatat magna voluptate cillum. Laborum amet Lorem labore officia reprehenderit laborum excepteur anim nisi dolore. Mollit ipsum consequat qui mollit laborum ut cillum deserunt qui.\r\n",
      "details":[
          {
              "title": "Status",
              "content": "Menikah dan Mempunyai Anak"
          },
          {
              "title":"Agama",
              "content":"Katolik"
          }
      ]
    }
  ]
}
