{
    "status": 200,
    "message": "success",
    "data": [
        {
            "type": "type2",
            "title": "Komedian",
            "items": [
                {
                    "id": 1,
                    "name": "Divi Tegar",
                    "rating": 4.4,
                    "voters": 50,
                    "location": "Surabaya",
                    "profilePicture": "https://images.unsplash.com/photo-1536548665027-b96d34a005ae?ixid=MnwxMjA3fDB8MHxwaG90by1wYWdlfHx8fGVufDB8fHx8&ixlib=rb-1.2.1&auto=format&fit=crop&w=1050&q=80",
                    "job": "Penyanyi",
                    "speciality": "Pop",
                    "price": "Rp. 3.000.000",
                    "description": "Saya belum pernah terjun ke dunia entertainment, namun saya selalu memenangkan lomba dance dan menyanyi sejak TK. Beberapa diantaranya: 1. Juara 1, Olimpiade Al Azhar 2. Juara Harapan 1, Olimpiade Nasional Al Azhar 3. Juara 1 Modern Dance Competition Tingkat Jakarta, SMAN 44 4. Juara 1 Modern Dance Competition Tingkat Jakarta, SMAN 31.",
                    "linkYoutube": "https://www.youtube.com/user/AgnesMonicaENT",
                    "riderList": [
                        {
                            "title": "Hotel Bintang 5",
                            "content": "2 kamar connecting door"
                        },
                        {
                            "title": "Transport Crew",
                            "content": "Mobil untuk 10 orang"
                        },
                        {
                            "title": "Konsumsi",
                            "content": "Makanan tidak boleh mengandung daging (vegetarian)"
                        }
                    ],
                    "dataUlasan": [
                        {
                            "avatar": "https://www.eventori.id/assets/images/foto_services/foto_1619975261.png",
                            "name": "Indah",
                            "timePost": "2 hari lalu",
                            "rating": "4",
                            "content": "Penampilannya bagus bangettt!! Gak rugi deh mesen Daffa. Mantap banget pokoknya!"
                        },
                        {
                            "avatar": "https://www.eventori.id/assets/images/foto_services/foto_1619975261.png",
                            "name": "Yola",
                            "rating": "5",
                            "timePost": "5 hari lalu",
                            "content": "Terima kasih telah menghibur adik saya, suaranya kayak vokalis Sheila on 7"
                        },
                        {
                            "avatar": "https://www.eventori.id/assets/images/foto_services/foto_1619975261.png",
                            "name": "Indah",
                            "timePost": "2 hari lalu",
                            "rating": "4",
                            "content": "Penampilannya bagus bangettt!! Gak rugi deh mesen Daffa. Mantap banget pokoknya!"
                        },
                        {
                            "avatar": "https://www.eventori.id/assets/images/foto_services/foto_1619975261.png",
                            "name": "Yola",
                            "rating": "5",
                            "timePost": "5 hari lalu",
                            "content": "Terima kasih telah menghibur adik saya, suaranya kayak vokalis Sheila on 7"
                        },
                        {
                            "avatar": "https://www.eventori.id/assets/images/foto_services/foto_1619975261.png",
                            "name": "Yola",
                            "rating": "5",
                            "timePost": "5 hari lalu",
                            "content": "Terima kasih telah menghibur adik saya, suaranya kayak vokalis Sheila on 7"
                        }
                    ]
                },
                {
                    "id": 2,
                    "name": "Iqbal Dika",
                    "rating": 3,
                    "voters": 88,
                    "location": "Jakarta",
                    "profilePicture": "https://images.unsplash.com/photo-1492562080023-ab3db95bfbce?ixid=MnwxMjA3fDB8MHxwaG90by1wYWdlfHx8fGVufDB8fHx8&ixlib=rb-1.2.1&auto=format&fit=crop&w=731&q=80",
                    "job": "Aktor",
                    "speciality": "Drama/FTV",
                    "price": "Rp. 15.000.000",
                    "description": "Saya belum pernah terjun ke dunia entertainment, namun saya selalu memenangkan lomba dance dan menyanyi sejak TK. Beberapa diantaranya: 1. Juara 1, Olimpiade Al Azhar 2. Juara Harapan 1, Olimpiade Nasional Al Azhar 3. Juara 1 Modern Dance Competition Tingkat Jakarta, SMAN 44 4. Juara 1 Modern Dance Competition Tingkat Jakarta, SMAN 31.",
                    "linkYoutube": "https://www.youtube.com/user/AgnesMonicaENT",
                    "riderList": [
                        {
                            "title": "Hotel Bintang 5",
                            "content": "2 kamar connecting door"
                        },
                        {
                            "title": "Transport Crew",
                            "content": "Mobil untuk 10 orang"
                        },
                        {
                            "title": "Konsumsi",
                            "content": "Makanan tidak boleh mengandung daging (vegetarian)"
                        }
                    ],
                    "dataUlasan": [
                        {
                            "avatar": "https://www.eventori.id/assets/images/foto_services/foto_1619975261.png",
                            "name": "Indah",
                            "timePost": "2 hari lalu",
                            "rating": "4",
                            "content": "Penampilannya bagus bangettt!! Gak rugi deh mesen Daffa. Mantap banget pokoknya!"
                        },
                        {
                            "avatar": "https://www.eventori.id/assets/images/foto_services/foto_1619975261.png",
                            "name": "Yola",
                            "rating": "5",
                            "timePost": "5 hari lalu",
                            "content": "Terima kasih telah menghibur adik saya, suaranya kayak vokalis Sheila on 7"
                        },
                        {
                            "avatar": "https://www.eventori.id/assets/images/foto_services/foto_1619975261.png",
                            "name": "Yola",
                            "rating": "5",
                            "timePost": "5 hari lalu",
                            "content": "Terima kasih telah menghibur adik saya, suaranya kayak vokalis Sheila on 7"
                        },
                        {
                            "avatar": "https://www.eventori.id/assets/images/foto_services/foto_1619975261.png",
                            "name": "Indah",
                            "timePost": "2 hari lalu",
                            "rating": "4",
                            "content": "Penampilannya bagus bangettt!! Gak rugi deh mesen Daffa. Mantap banget pokoknya!"
                        },
                        {
                            "avatar": "https://www.eventori.id/assets/images/foto_services/foto_1619975261.png",
                            "name": "Yola",
                            "rating": "5",
                            "timePost": "5 hari lalu",
                            "content": "Terima kasih telah menghibur adik saya, suaranya kayak vokalis Sheila on 7"
                        }
                    ]
                },
                {
                    "id": 3,
                    "name": "Irfan Budi",
                    "rating": 3.7,
                    "voters": 125,
                    "location": "Depok",
                    "profilePicture": "https://images.unsplash.com/photo-1589992896844-9b720813d1cb?ixid=MnwxMjA3fDB8MHxwaG90by1wYWdlfHx8fGVufDB8fHx8&ixlib=rb-1.2.1&auto=format&fit=crop&w=889&q=80",
                    "job": "Komedian",
                    "speciality": "Impersonate",
                    "price": "Rp. 2.000.000",
                    "description": "Saya belum pernah terjun ke dunia entertainment, namun saya selalu memenangkan lomba dance dan menyanyi sejak TK. Beberapa diantaranya: 1. Juara 1, Olimpiade Al Azhar 2. Juara Harapan 1, Olimpiade Nasional Al Azhar 3. Juara 1 Modern Dance Competition Tingkat Jakarta, SMAN 44 4. Juara 1 Modern Dance Competition Tingkat Jakarta, SMAN 31.",
                    "linkYoutube": "https://www.youtube.com/user/AgnesMonicaENT",
                    "riderList": [
                        {
                            "title": "Hotel Bintang 5",
                            "content": "2 kamar connecting door"
                        },
                        {
                            "title": "Transport Crew",
                            "content": "Mobil untuk 10 orang"
                        },
                        {
                            "title": "Konsumsi",
                            "content": "Makanan tidak boleh mengandung daging (vegetarian)"
                        }
                    ],
                    "dataUlasan": [
                        {
                            "avatar": "https://www.eventori.id/assets/images/foto_services/foto_1619975261.png",
                            "name": "Indah",
                            "timePost": "2 hari lalu",
                            "rating": "4",
                            "content": "Penampilannya bagus bangettt!! Gak rugi deh mesen Daffa. Mantap banget pokoknya!"
                        },
                        {
                            "avatar": "https://www.eventori.id/assets/images/foto_services/foto_1619975261.png",
                            "name": "Yola",
                            "rating": "5",
                            "timePost": "5 hari lalu",
                            "content": "Terima kasih telah menghibur adik saya, suaranya kayak vokalis Sheila on 7"
                        },
                        {
                            "avatar": "https://www.eventori.id/assets/images/foto_services/foto_1619975261.png",
                            "name": "Yola",
                            "rating": "5",
                            "timePost": "5 hari lalu",
                            "content": "Terima kasih telah menghibur adik saya, suaranya kayak vokalis Sheila on 7"
                        },
                        {
                            "avatar": "https://www.eventori.id/assets/images/foto_services/foto_1619975261.png",
                            "name": "Indah",
                            "timePost": "2 hari lalu",
                            "rating": "4",
                            "content": "Penampilannya bagus bangettt!! Gak rugi deh mesen Daffa. Mantap banget pokoknya!"
                        },
                        {
                            "avatar": "https://www.eventori.id/assets/images/foto_services/foto_1619975261.png",
                            "name": "Yola",
                            "rating": "5",
                            "timePost": "5 hari lalu",
                            "content": "Terima kasih telah menghibur adik saya, suaranya kayak vokalis Sheila on 7"
                        }
                    ]
                }
            ]
        },
        {
            "type": "type2",
            "title": "Aktor",
            "items": [
                {
                    "id": 1,
                    "name": "Divi Tegar",
                    "rating": 4.4,
                    "voters": 50,
                    "location": "Surabaya",
                    "profilePicture": "https://images.unsplash.com/photo-1536548665027-b96d34a005ae?ixid=MnwxMjA3fDB8MHxwaG90by1wYWdlfHx8fGVufDB8fHx8&ixlib=rb-1.2.1&auto=format&fit=crop&w=1050&q=80",
                    "job": "Penyanyi",
                    "speciality": "Pop",
                    "price": "Rp. 3.000.000",
                    "description": "Saya belum pernah terjun ke dunia entertainment, namun saya selalu memenangkan lomba dance dan menyanyi sejak TK. Beberapa diantaranya: 1. Juara 1, Olimpiade Al Azhar 2. Juara Harapan 1, Olimpiade Nasional Al Azhar 3. Juara 1 Modern Dance Competition Tingkat Jakarta, SMAN 44 4. Juara 1 Modern Dance Competition Tingkat Jakarta, SMAN 31.",
                    "linkYoutube": "https://www.youtube.com/user/AgnesMonicaENT",
                    "riderList": [
                        {
                            "title": "Hotel Bintang 5",
                            "content": "2 kamar connecting door"
                        },
                        {
                            "title": "Transport Crew",
                            "content": "Mobil untuk 10 orang"
                        },
                        {
                            "title": "Konsumsi",
                            "content": "Makanan tidak boleh mengandung daging (vegetarian)"
                        }
                    ],
                    "dataUlasan": [
                        {
                            "avatar": "https://www.eventori.id/assets/images/foto_services/foto_1619975261.png",
                            "name": "Indah",
                            "timePost": "2 hari lalu",
                            "rating": "4",
                            "content": "Penampilannya bagus bangettt!! Gak rugi deh mesen Daffa. Mantap banget pokoknya!"
                        },
                        {
                            "avatar": "https://www.eventori.id/assets/images/foto_services/foto_1619975261.png",
                            "name": "Yola",
                            "rating": "5",
                            "timePost": "5 hari lalu",
                            "content": "Terima kasih telah menghibur adik saya, suaranya kayak vokalis Sheila on 7"
                        },
                        {
                            "avatar": "https://www.eventori.id/assets/images/foto_services/foto_1619975261.png",
                            "name": "Indah",
                            "timePost": "2 hari lalu",
                            "rating": "4",
                            "content": "Penampilannya bagus bangettt!! Gak rugi deh mesen Daffa. Mantap banget pokoknya!"
                        },
                        {
                            "avatar": "https://www.eventori.id/assets/images/foto_services/foto_1619975261.png",
                            "name": "Yola",
                            "rating": "5",
                            "timePost": "5 hari lalu",
                            "content": "Terima kasih telah menghibur adik saya, suaranya kayak vokalis Sheila on 7"
                        },
                        {
                            "avatar": "https://www.eventori.id/assets/images/foto_services/foto_1619975261.png",
                            "name": "Yola",
                            "rating": "5",
                            "timePost": "5 hari lalu",
                            "content": "Terima kasih telah menghibur adik saya, suaranya kayak vokalis Sheila on 7"
                        }
                    ]
                },
                {
                    "id": 2,
                    "name": "Iqbal Dika",
                    "rating": 3,
                    "voters": 88,
                    "location": "Jakarta",
                    "profilePicture": "https://images.unsplash.com/photo-1492562080023-ab3db95bfbce?ixid=MnwxMjA3fDB8MHxwaG90by1wYWdlfHx8fGVufDB8fHx8&ixlib=rb-1.2.1&auto=format&fit=crop&w=731&q=80",
                    "job": "Aktor",
                    "speciality": "Drama/FTV",
                    "price": "Rp. 15.000.000",
                    "description": "Saya belum pernah terjun ke dunia entertainment, namun saya selalu memenangkan lomba dance dan menyanyi sejak TK. Beberapa diantaranya: 1. Juara 1, Olimpiade Al Azhar 2. Juara Harapan 1, Olimpiade Nasional Al Azhar 3. Juara 1 Modern Dance Competition Tingkat Jakarta, SMAN 44 4. Juara 1 Modern Dance Competition Tingkat Jakarta, SMAN 31.",
                    "linkYoutube": "https://www.youtube.com/user/AgnesMonicaENT",
                    "riderList": [
                        {
                            "title": "Hotel Bintang 5",
                            "content": "2 kamar connecting door"
                        },
                        {
                            "title": "Transport Crew",
                            "content": "Mobil untuk 10 orang"
                        },
                        {
                            "title": "Konsumsi",
                            "content": "Makanan tidak boleh mengandung daging (vegetarian)"
                        }
                    ],
                    "dataUlasan": [
                        {
                            "avatar": "https://www.eventori.id/assets/images/foto_services/foto_1619975261.png",
                            "name": "Indah",
                            "timePost": "2 hari lalu",
                            "rating": "4",
                            "content": "Penampilannya bagus bangettt!! Gak rugi deh mesen Daffa. Mantap banget pokoknya!"
                        },
                        {
                            "avatar": "https://www.eventori.id/assets/images/foto_services/foto_1619975261.png",
                            "name": "Yola",
                            "rating": "5",
                            "timePost": "5 hari lalu",
                            "content": "Terima kasih telah menghibur adik saya, suaranya kayak vokalis Sheila on 7"
                        },
                        {
                            "avatar": "https://www.eventori.id/assets/images/foto_services/foto_1619975261.png",
                            "name": "Yola",
                            "rating": "5",
                            "timePost": "5 hari lalu",
                            "content": "Terima kasih telah menghibur adik saya, suaranya kayak vokalis Sheila on 7"
                        },
                        {
                            "avatar": "https://www.eventori.id/assets/images/foto_services/foto_1619975261.png",
                            "name": "Indah",
                            "timePost": "2 hari lalu",
                            "rating": "4",
                            "content": "Penampilannya bagus bangettt!! Gak rugi deh mesen Daffa. Mantap banget pokoknya!"
                        },
                        {
                            "avatar": "https://www.eventori.id/assets/images/foto_services/foto_1619975261.png",
                            "name": "Yola",
                            "rating": "5",
                            "timePost": "5 hari lalu",
                            "content": "Terima kasih telah menghibur adik saya, suaranya kayak vokalis Sheila on 7"
                        }
                    ]
                },
                {
                    "id": 3,
                    "name": "Irfan Budi",
                    "rating": 3.7,
                    "voters": 125,
                    "location": "Depok",
                    "profilePicture": "https://images.unsplash.com/photo-1589992896844-9b720813d1cb?ixid=MnwxMjA3fDB8MHxwaG90by1wYWdlfHx8fGVufDB8fHx8&ixlib=rb-1.2.1&auto=format&fit=crop&w=889&q=80",
                    "job": "Komedian",
                    "speciality": "Impersonate",
                    "price": "Rp. 2.000.000",
                    "description": "Saya belum pernah terjun ke dunia entertainment, namun saya selalu memenangkan lomba dance dan menyanyi sejak TK. Beberapa diantaranya: 1. Juara 1, Olimpiade Al Azhar 2. Juara Harapan 1, Olimpiade Nasional Al Azhar 3. Juara 1 Modern Dance Competition Tingkat Jakarta, SMAN 44 4. Juara 1 Modern Dance Competition Tingkat Jakarta, SMAN 31.",
                    "linkYoutube": "https://www.youtube.com/user/AgnesMonicaENT",
                    "riderList": [
                        {
                            "title": "Hotel Bintang 5",
                            "content": "2 kamar connecting door"
                        },
                        {
                            "title": "Transport Crew",
                            "content": "Mobil untuk 10 orang"
                        },
                        {
                            "title": "Konsumsi",
                            "content": "Makanan tidak boleh mengandung daging (vegetarian)"
                        }
                    ],
                    "dataUlasan": [
                        {
                            "avatar": "https://www.eventori.id/assets/images/foto_services/foto_1619975261.png",
                            "name": "Indah",
                            "timePost": "2 hari lalu",
                            "rating": "4",
                            "content": "Penampilannya bagus bangettt!! Gak rugi deh mesen Daffa. Mantap banget pokoknya!"
                        },
                        {
                            "avatar": "https://www.eventori.id/assets/images/foto_services/foto_1619975261.png",
                            "name": "Yola",
                            "rating": "5",
                            "timePost": "5 hari lalu",
                            "content": "Terima kasih telah menghibur adik saya, suaranya kayak vokalis Sheila on 7"
                        },
                        {
                            "avatar": "https://www.eventori.id/assets/images/foto_services/foto_1619975261.png",
                            "name": "Yola",
                            "rating": "5",
                            "timePost": "5 hari lalu",
                            "content": "Terima kasih telah menghibur adik saya, suaranya kayak vokalis Sheila on 7"
                        },
                        {
                            "avatar": "https://www.eventori.id/assets/images/foto_services/foto_1619975261.png",
                            "name": "Indah",
                            "timePost": "2 hari lalu",
                            "rating": "4",
                            "content": "Penampilannya bagus bangettt!! Gak rugi deh mesen Daffa. Mantap banget pokoknya!"
                        },
                        {
                            "avatar": "https://www.eventori.id/assets/images/foto_services/foto_1619975261.png",
                            "name": "Yola",
                            "rating": "5",
                            "timePost": "5 hari lalu",
                            "content": "Terima kasih telah menghibur adik saya, suaranya kayak vokalis Sheila on 7"
                        }
                    ]
                }
            ]
        },
        {
            "type": "type2",
            "title": "Model",
            "items": [
                {
                    "id": 1,
                    "name": "Divi Tegar",
                    "rating": 4.4,
                    "voters": 50,
                    "location": "Surabaya",
                    "profilePicture": "https://images.unsplash.com/photo-1536548665027-b96d34a005ae?ixid=MnwxMjA3fDB8MHxwaG90by1wYWdlfHx8fGVufDB8fHx8&ixlib=rb-1.2.1&auto=format&fit=crop&w=1050&q=80",
                    "job": "Penyanyi",
                    "speciality": "Pop",
                    "price": "Rp. 3.000.000",
                    "description": "Saya belum pernah terjun ke dunia entertainment, namun saya selalu memenangkan lomba dance dan menyanyi sejak TK. Beberapa diantaranya: 1. Juara 1, Olimpiade Al Azhar 2. Juara Harapan 1, Olimpiade Nasional Al Azhar 3. Juara 1 Modern Dance Competition Tingkat Jakarta, SMAN 44 4. Juara 1 Modern Dance Competition Tingkat Jakarta, SMAN 31.",
                    "linkYoutube": "https://www.youtube.com/user/AgnesMonicaENT",
                    "riderList": [
                        {
                            "title": "Hotel Bintang 5",
                            "content": "2 kamar connecting door"
                        },
                        {
                            "title": "Transport Crew",
                            "content": "Mobil untuk 10 orang"
                        },
                        {
                            "title": "Konsumsi",
                            "content": "Makanan tidak boleh mengandung daging (vegetarian)"
                        }
                    ],
                    "dataUlasan": [
                        {
                            "avatar": "https://www.eventori.id/assets/images/foto_services/foto_1619975261.png",
                            "name": "Indah",
                            "timePost": "2 hari lalu",
                            "rating": "4",
                            "content": "Penampilannya bagus bangettt!! Gak rugi deh mesen Daffa. Mantap banget pokoknya!"
                        },
                        {
                            "avatar": "https://www.eventori.id/assets/images/foto_services/foto_1619975261.png",
                            "name": "Yola",
                            "rating": "5",
                            "timePost": "5 hari lalu",
                            "content": "Terima kasih telah menghibur adik saya, suaranya kayak vokalis Sheila on 7"
                        },
                        {
                            "avatar": "https://www.eventori.id/assets/images/foto_services/foto_1619975261.png",
                            "name": "Indah",
                            "timePost": "2 hari lalu",
                            "rating": "4",
                            "content": "Penampilannya bagus bangettt!! Gak rugi deh mesen Daffa. Mantap banget pokoknya!"
                        },
                        {
                            "avatar": "https://www.eventori.id/assets/images/foto_services/foto_1619975261.png",
                            "name": "Yola",
                            "rating": "5",
                            "timePost": "5 hari lalu",
                            "content": "Terima kasih telah menghibur adik saya, suaranya kayak vokalis Sheila on 7"
                        },
                        {
                            "avatar": "https://www.eventori.id/assets/images/foto_services/foto_1619975261.png",
                            "name": "Yola",
                            "rating": "5",
                            "timePost": "5 hari lalu",
                            "content": "Terima kasih telah menghibur adik saya, suaranya kayak vokalis Sheila on 7"
                        }
                    ]
                },
                {
                    "id": 2,
                    "name": "Iqbal Dika",
                    "rating": 3,
                    "voters": 88,
                    "location": "Jakarta",
                    "profilePicture": "https://images.unsplash.com/photo-1492562080023-ab3db95bfbce?ixid=MnwxMjA3fDB8MHxwaG90by1wYWdlfHx8fGVufDB8fHx8&ixlib=rb-1.2.1&auto=format&fit=crop&w=731&q=80",
                    "job": "Aktor",
                    "speciality": "Drama/FTV",
                    "price": "Rp. 15.000.000",
                    "description": "Saya belum pernah terjun ke dunia entertainment, namun saya selalu memenangkan lomba dance dan menyanyi sejak TK. Beberapa diantaranya: 1. Juara 1, Olimpiade Al Azhar 2. Juara Harapan 1, Olimpiade Nasional Al Azhar 3. Juara 1 Modern Dance Competition Tingkat Jakarta, SMAN 44 4. Juara 1 Modern Dance Competition Tingkat Jakarta, SMAN 31.",
                    "linkYoutube": "https://www.youtube.com/user/AgnesMonicaENT",
                    "riderList": [
                        {
                            "title": "Hotel Bintang 5",
                            "content": "2 kamar connecting door"
                        },
                        {
                            "title": "Transport Crew",
                            "content": "Mobil untuk 10 orang"
                        },
                        {
                            "title": "Konsumsi",
                            "content": "Makanan tidak boleh mengandung daging (vegetarian)"
                        }
                    ],
                    "dataUlasan": [
                        {
                            "avatar": "https://www.eventori.id/assets/images/foto_services/foto_1619975261.png",
                            "name": "Indah",
                            "timePost": "2 hari lalu",
                            "rating": "4",
                            "content": "Penampilannya bagus bangettt!! Gak rugi deh mesen Daffa. Mantap banget pokoknya!"
                        },
                        {
                            "avatar": "https://www.eventori.id/assets/images/foto_services/foto_1619975261.png",
                            "name": "Yola",
                            "rating": "5",
                            "timePost": "5 hari lalu",
                            "content": "Terima kasih telah menghibur adik saya, suaranya kayak vokalis Sheila on 7"
                        },
                        {
                            "avatar": "https://www.eventori.id/assets/images/foto_services/foto_1619975261.png",
                            "name": "Yola",
                            "rating": "5",
                            "timePost": "5 hari lalu",
                            "content": "Terima kasih telah menghibur adik saya, suaranya kayak vokalis Sheila on 7"
                        },
                        {
                            "avatar": "https://www.eventori.id/assets/images/foto_services/foto_1619975261.png",
                            "name": "Indah",
                            "timePost": "2 hari lalu",
                            "rating": "4",
                            "content": "Penampilannya bagus bangettt!! Gak rugi deh mesen Daffa. Mantap banget pokoknya!"
                        },
                        {
                            "avatar": "https://www.eventori.id/assets/images/foto_services/foto_1619975261.png",
                            "name": "Yola",
                            "rating": "5",
                            "timePost": "5 hari lalu",
                            "content": "Terima kasih telah menghibur adik saya, suaranya kayak vokalis Sheila on 7"
                        }
                    ]
                },
                {
                    "id": 3,
                    "name": "Irfan Budi",
                    "rating": 3.7,
                    "voters": 125,
                    "location": "Depok",
                    "profilePicture": "https://images.unsplash.com/photo-1589992896844-9b720813d1cb?ixid=MnwxMjA3fDB8MHxwaG90by1wYWdlfHx8fGVufDB8fHx8&ixlib=rb-1.2.1&auto=format&fit=crop&w=889&q=80",
                    "job": "Komedian",
                    "speciality": "Impersonate",
                    "price": "Rp. 2.000.000",
                    "description": "Saya belum pernah terjun ke dunia entertainment, namun saya selalu memenangkan lomba dance dan menyanyi sejak TK. Beberapa diantaranya: 1. Juara 1, Olimpiade Al Azhar 2. Juara Harapan 1, Olimpiade Nasional Al Azhar 3. Juara 1 Modern Dance Competition Tingkat Jakarta, SMAN 44 4. Juara 1 Modern Dance Competition Tingkat Jakarta, SMAN 31.",
                    "linkYoutube": "https://www.youtube.com/user/AgnesMonicaENT",
                    "riderList": [
                        {
                            "title": "Hotel Bintang 5",
                            "content": "2 kamar connecting door"
                        },
                        {
                            "title": "Transport Crew",
                            "content": "Mobil untuk 10 orang"
                        },
                        {
                            "title": "Konsumsi",
                            "content": "Makanan tidak boleh mengandung daging (vegetarian)"
                        }
                    ],
                    "dataUlasan": [
                        {
                            "avatar": "https://www.eventori.id/assets/images/foto_services/foto_1619975261.png",
                            "name": "Indah",
                            "timePost": "2 hari lalu",
                            "rating": "4",
                            "content": "Penampilannya bagus bangettt!! Gak rugi deh mesen Daffa. Mantap banget pokoknya!"
                        },
                        {
                            "avatar": "https://www.eventori.id/assets/images/foto_services/foto_1619975261.png",
                            "name": "Yola",
                            "rating": "5",
                            "timePost": "5 hari lalu",
                            "content": "Terima kasih telah menghibur adik saya, suaranya kayak vokalis Sheila on 7"
                        },
                        {
                            "avatar": "https://www.eventori.id/assets/images/foto_services/foto_1619975261.png",
                            "name": "Yola",
                            "rating": "5",
                            "timePost": "5 hari lalu",
                            "content": "Terima kasih telah menghibur adik saya, suaranya kayak vokalis Sheila on 7"
                        },
                        {
                            "avatar": "https://www.eventori.id/assets/images/foto_services/foto_1619975261.png",
                            "name": "Indah",
                            "timePost": "2 hari lalu",
                            "rating": "4",
                            "content": "Penampilannya bagus bangettt!! Gak rugi deh mesen Daffa. Mantap banget pokoknya!"
                        },
                        {
                            "avatar": "https://www.eventori.id/assets/images/foto_services/foto_1619975261.png",
                            "name": "Yola",
                            "rating": "5",
                            "timePost": "5 hari lalu",
                            "content": "Terima kasih telah menghibur adik saya, suaranya kayak vokalis Sheila on 7"
                        }
                    ]
                }
            ]
        }
    ]
}